[gd_scene load_steps=2 format=2]

[ext_resource path="res://alien.PNG" type="Texture" id=1]

[node name="alien" type="Sprite"]
visible = false
position = Vector2( 144, 288 )
scale = Vector2( 1.14286, 1.13081 )
texture = ExtResource( 1 )
centered = false

[node name="HPBar" type="ColorRect" parent="."]
margin_right = 42.0
margin_bottom = 2.0
color = Color( 1, 0, 0, 1 )
__meta__ = {
"_edit_use_anchors_": false
}
